[{
    "id": "balazs-lohn",
    "name": "Dr. Balázs Lohn",
    "title": "",
    "email": "balazs.lohn@lohn.hu",
    "mobile": "+36 1 999 1233",
    "languages": "Deutsch - English - Magyar",
    "introduction": "",
    "profileButtonText": ""
},
{
    "id": "eszter-nagy-mihaly",
    "name": "Dr. Eszter Nagy-Mihály",
    "title": "",
    "email": "eszter.nagy-mihaly@lohn.hu",
    "mobile": "+36 1 999 1233",
    "languages": "Deutsch - English - Magyar",
    "introduction": "",
    "profileButtonText": ""
},
{
    "id": "marta-mraz",
    "name": "Dr. Márta Mráz",
    "title": "",
    "email": "marta.mraz@lohn.hu",
    "mobile": "+36 1 999 1233",
    "languages": "Deutsch - English - Magyar",
    "introduction": "",
    "profileButtonText": ""
},
{
    "id": "balazs-kis",
    "name": "Dr. Balázs Kis",
    "title": "",
    "email": "balazs.kis@lohn.hu",
    "mobile": "+36 1 999 1233",
    "languages": "English - Magyar",
    "introduction": "",
    "profileButtonText": ""
},
{
    "id": "gergely-kostenszky",
    "name": "Dr. Gergely Kostenszky",
    "title": "",
    "email": "gergely.kostenszky@lohn.hu",
    "mobile": "+36 1 999 1233",
    "languages": "English - Magyar",
    "introduction": "",
    "profileButtonText": ""
},
{
    "id": "monika-lefler",
    "name": "Dr. Mónika Lefler",
    "title": "",
    "email": "monika.lefler@lohn.hu",
    "mobile": "+36 1 999 1233",
    "languages": "English - Magyar - Italiano",
    "introduction": "",
    "profileButtonText": ""
},
{
    "id": "gyorgy-sebestyen",
    "name": "Dr. György Sebestyén LL.M.",
    "title": "",
    "email": "gyorgy.sebestyen@lohn.hu",
    "mobile": "+36 1 999 1233",
    "languages": "English - Magyar",
    "introduction": "",
    "profileButtonText": ""
},
{
    "id": "laszlo-solti-toth",
    "name": "Dr. László Solti-Tóth",
    "title": "",
    "email": "laszlo.solti-toth@lohn.hu",
    "mobile": "+36 1 999 1233",
    "languages": "Deutsch - English - Magyar",
    "introduction": "",
    "profileButtonText": ""
},
{
    "id": "adam-tarr",
    "name": "Dr. Ádám Tarr, LL.M.",
    "title": "",
    "email": "adam.tarr@lohn.hu",
    "mobile": "+36 1 999 1233",
    "languages": "Deutsch - English - Magyar",
    "introduction": "",
    "profileButtonText": ""
},
{
    "id": "gyorgy-kecser",
    "name": "Dr. György Kecser",
    "title": "",
    "email": "gyorgy.kecser@lohn.hu",
    "mobile": "+36 1 999 1233",
    "languages": "English - Magyar",
    "introduction": "",
    "profileButtonText": ""
},
{
    "id": "kinga-csikos",
    "name": "Dr. Kinga Csikós",
    "title": "",
    "email": "kinga.csikos@lohn.hu",
    "mobile": "+36 1 999 1233",
    "languages": "Magyar",
    "introduction": "",
    "profileButtonText": ""
},
{
    "id": "emese-kavassy",
    "name": "Dr. Emese Kávássy",
    "title": "",
    "email": "emese.kavassy@lohn.hu",
    "mobile": "+36 1 999 1233",
    "languages": "English - Magyar",
    "introduction": "",
    "profileButtonText": ""
},
{
    "id": "borbala-maglai",
    "name": "Dr. Borbála Maglai",
    "title": "",
    "email": "borbala.maglai@lohn.hu",
    "mobile": "+36 1 999 1233",
    "languages": "English - Magyar - Српски",
    "introduction": "",
    "profileButtonText": ""
},
{
    "id": "gergely-szalay",
    "name": "Dr. Gergely Szalay",
    "title": "",
    "email": "gergely.szalay@lohn.hu",
    "mobile": "+36 1 999 1233",
    "languages": "English - Magyar",
    "introduction": "",
    "profileButtonText": ""
},
{
    "id": "tamas-szerbin",
    "name": "Dr. Tamás Szerbin",
    "title": "",
    "email": "tamas.szerbin@lohn.hu",
    "mobile": "+36 1 999 1233",
    "languages": "русский - English - Magyar",
    "introduction": "",
    "profileButtonText": ""
},
{
    "id": "katalin-toth",
    "name": "Dr. Katalin Tóth",
    "title": "",
    "email": "katalin.toth@lohn.hu",
    "mobile": "+36 1 999 1233",
    "languages": "English - Magyar",
    "introduction": "",
    "profileButtonText": ""
},
{
    "id": "krisztian-kerek",
    "name": "Dr. Krisztián Kerék",
    "title": "",
    "email": "krisztian.kerek@lohn.hu",
    "mobile": "+36 1 999 1233",
    "languages": "русский- English - Magyar",
    "introduction": "",
    "profileButtonText": ""
},
{
    "id": "zita-varga",
    "name": "Dr. Zita Varga",
    "title": "",
    "email": "zita.varga@lohn.hu",
    "mobile": "+36 1 999 1233",
    "languages": "English - Magyar",
    "introduction": "",
    "profileButtonText": ""
},
{
    "id": "agnes-sarkadi-nagy",
    "name": "Ágnes Sarkadi-Nagy",
    "title": "",
    "email": "agnes.sarkadi-nagy@lohn.hu",
    "mobile": "+36 1 999 1233",
    "languages": "English - Magyar",
    "introduction": "",
    "profileButtonText": ""
},
{
    "id": "alexandra-varszegi",
    "name": "Alexandra Várszegi",
    "title": "",
    "email": "alexandra.varszegi@lohn.hu",
    "mobile": "+36 1 999 1233",
    "languages": "English - Magyar",
    "introduction": "",
    "profileButtonText": ""
},
{
    "id": "annamaria-lohn",
    "name": "Annamária Lohn",
    "title": "",
    "email": "annamaria.lohn@lohn.hu",
    "mobile": "+36 1 999 1233",
    "languages": "English - Magyar",
    "introduction": "",
    "profileButtonText": ""
}

]